<?xml version="1.0" encoding="UTF-8" standalone="no"?>
<svg
   xmlns:dc="http://purl.org/dc/elements/1.1/"
   xmlns:cc="http://creativecommons.org/ns#"
   xmlns:rdf="http://www.w3.org/1999/02/22-rdf-syntax-ns#"
   xmlns:svg="http://www.w3.org/2000/svg"
   xmlns="http://www.w3.org/2000/svg"
   xmlns:sodipodi="http://sodipodi.sourceforge.net/DTD/sodipodi-0.dtd"
   xmlns:inkscape="http://www.inkscape.org/namespaces/inkscape"
   width="1752"
   height="512"
   viewBox="0 0 463.55026 135.46667"
   version="1.1"
   id="svg8"
   inkscape:version="1.0 (4035a4f, 2020-05-01)"
   sodipodi:docname="logo_fi_uaem_invert.svg"
   inkscape:export-filename="C:\xampp\htdocs\sistemaaccesofi\img\png\logo_fi_uaem_invert.png"
   inkscape:export-xdpi="96"
   inkscape:export-ydpi="96">
  <defs
     id="defs2">
    <rect
       x="125.8763"
       y="28.044977"
       width="143.48593"
       height="60.655418"
       id="rect856" />
    <rect
       x="208.0546"
       y="58.698792"
       width="1.3044176"
       height="18.914055"
       id="rect850" />
    <rect
       x="242.62167"
       y="57.394375"
       width="14.348593"
       height="15.000802"
       id="rect844" />
  </defs>
  <sodipodi:namedview
     id="base"
     pagecolor="#ffffff"
     bordercolor="#666666"
     borderopacity="1.0"
     inkscape:pageopacity="0.0"
     inkscape:pageshadow="2"
     inkscape:zoom="0.27293488"
     inkscape:cx="1721.782"
     inkscape:cy="499.73788"
     inkscape:document-units="px"
     inkscape:current-layer="layer1"
     inkscape:document-rotation="0"
     showgrid="false"
     units="px"
     inkscape:window-width="1366"
     inkscape:window-height="695"
     inkscape:window-x="0"
     inkscape:window-y="0"
     inkscape:window-maximized="1" />
  <metadata
     id="metadata5">
    <rdf:RDF>
      <cc:Work
         rdf:about="">
        <dc:format>image/svg+xml</dc:format>
        <dc:type
           rdf:resource="http://purl.org/dc/dcmitype/StillImage" />
        <dc:title />
      </cc:Work>
    </rdf:RDF>
  </metadata>
  <g
     inkscape:label="Capa 1"
     inkscape:groupmode="layer"
     id="layer1">
    <path
       style="fill:#a7964d;fill-opacity:1;stroke-width:0.316288"
       d="M 29.490772,87.104188 C 29.716289,86.786458 36.137593,77.927617 43.760341,67.417877 57.132436,48.981326 60.142338,45.203646 63.0054,43.26379 63.609437,42.854524 73.070133,37.816559 84.029163,32.068313 94.98819,26.320066 104.73132,21.181559 105.68054,20.649406 l 1.72584,-0.96755 -1.91863,2.084794 c -2.13613,2.321128 -2.85742,3.397579 -11.269867,16.819008 -3.242159,5.172638 -8.328382,13.278299 -11.302714,18.012577 -2.974335,4.734281 -8.511952,13.557251 -12.305851,19.606609 l -6.897971,10.998824 -4.510653,0.199043 c -2.480868,0.109529 -10.272753,0.217082 -17.315304,0.239108 -12.307518,0.03856 -12.788728,0.01759 -12.394618,-0.537631 z m 49.084581,-10.19013 c 2.913312,-5.794356 5.32352,-10.50904 5.35603,-10.477073 0.0325,0.03193 -0.651797,2.037708 -1.520701,4.457212 -0.868907,2.419505 -1.530931,4.442729 -1.471171,4.496072 0.0598,0.05338 13.346582,0.200177 29.526309,0.326297 l 29.41775,0.229312 -0.0223,-4.732312 c -0.0122,-2.602775 -0.12965,-10.686033 -0.26092,-17.962801 l -0.23865,-13.230476 -1.29669,-2.746398 c -3.16082,-6.694663 -9.12492,-12.778309 -14.92486,-15.224027 -4.09379,-1.726272 -9.8163,-2.439572 -13.22352,-1.648284 -1.15211,0.267567 -1.20363,0.252478 -0.62757,-0.183793 1.39714,-1.05811 4.52733,-2.388236 6.74647,-2.866805 9.047,-1.951038 19.08379,3.223873 26.01776,13.414609 2.18132,3.205838 4.49836,7.812638 4.01633,7.985387 -0.20955,0.07509 -1.55754,0.508975 -2.99556,0.964178 l -2.61456,0.827641 0.20639,17.273114 c 0.1135,9.500209 0.2619,17.45243 0.32974,17.671621 0.0962,0.310705 3.10518,0.398509 13.65762,0.398509 h 13.53426 l -0.22062,-5.818227 c -0.89429,-23.583204 -0.95697,-24.497286 -1.82702,-26.647619 -1.13478,-2.804595 -3.98033,-7.042038 -5.91668,-8.810824 -2.09898,-1.917333 -3.78732,-2.907761 -5.88772,-3.453886 l -1.693,-0.440198 1.84631,-0.917761 c 2.55266,-1.268865 5.51877,-1.287928 7.92073,-0.05091 2.37322,1.222224 3.71095,2.335924 5.63892,4.69455 1.63431,1.999383 5.09677,8.517647 5.09677,9.594949 0,0.396369 -0.61727,0.668089 -2.50838,1.104187 -1.37961,0.318144 -2.63494,0.659187 -2.78962,0.757874 -0.24767,0.158023 -0.0135,7.928651 0.76531,25.400698 l 0.20053,4.498819 2.37032,0.203574 c 1.30368,0.111939 5.80854,0.203575 10.01082,0.203575 h 7.64049 v -1.024475 c 0,-0.563466 -0.42847,-6.481305 -0.95215,-13.150772 -1.02262,-13.023609 -1.20585,-14.026533 -3.22995,-17.678326 -1.19981,-2.164612 -4.29828,-5.5596 -5.55779,-6.089651 -0.52393,-0.220488 -0.90065,-0.559257 -0.83714,-0.752819 0.25545,-0.778605 2.18073,-1.564687 3.83225,-1.564687 3.36949,0 6.51142,2.956253 9.47306,8.913239 0.98267,1.976544 1.71089,3.670718 1.61826,3.76483 -0.0926,0.09412 -1.40314,0.445249 -2.91224,0.780301 -1.50911,0.335057 -2.78816,0.656539 -2.84235,0.714405 -0.0745,0.07955 1.90209,25.616486 2.01305,26.008248 0.0125,0.04386 5.23546,0.07965 11.60674,0.07965 h 11.58416 l 1.6276,4.961504 c 0.89518,2.728836 1.55876,5.03145 1.47463,5.11694 -0.0841,0.08543 -18.985,0.283859 -42.00194,0.440851 -23.01693,0.157003 -55.03479,0.384375 -71.15079,0.505291 l -29.301627,0.219853 z m 137.442137,7.818859 c -0.26138,-0.920549 -0.93014,-3.431159 -1.48613,-5.579119 l -1.01091,-3.905374 -1.43868,-0.0024 -1.43868,-0.0024 -2.159,-7.728524 c -4.44214,-15.901385 -5.03632,-17.549176 -7.44368,-20.643418 -0.70082,-0.900785 -1.87012,-2.021741 -2.59843,-2.491005 -0.72831,-0.469268 -1.36388,-0.978865 -1.41237,-1.13244 -0.19128,-0.605761 1.70964,-1.470036 3.2378,-1.47211 3.27583,-0.0045 6.16219,2.523547 8.55161,7.489856 1.12726,2.342965 12.33601,35.846028 12.33601,36.872455 0,0.147689 -1.04902,0.26852 -2.33115,0.26852 h -2.33116 z M 193.30622,46.476244 c -0.17169,-0.21918 -0.65844,-1.142883 -1.08167,-2.052678 l -0.76948,-1.654166 2.37686,-0.519847 c 1.30727,-0.285916 2.61676,-0.588996 2.90999,-0.67351 0.36651,-0.105637 0.25723,0.146434 -0.34961,0.806436 -0.4855,0.528056 -1.25311,1.754837 -1.70579,2.726186 -0.45267,0.971347 -0.87818,1.766087 -0.94558,1.766087 -0.0674,0 -0.26301,-0.179329 -0.43472,-0.398508 z m -20.89843,-6.500939 c -0.47752,-0.989198 -0.75404,-1.902675 -0.6145,-2.029949 0.13954,-0.127274 1.44058,-0.550422 2.89122,-0.940328 1.45064,-0.389907 2.86268,-0.794025 3.1379,-0.89804 0.27521,-0.10401 -0.0242,0.40601 -0.66534,1.13339 -0.64114,0.727379 -1.52606,2.044974 -1.96647,2.927988 -1.07009,2.145499 -1.67416,2.103593 -2.78281,-0.193061 z M 146.08976,35.31801 c -0.50611,-0.400705 -1.80977,-2.446085 -1.81196,-2.842901 -6.2e-4,-0.117011 1.5874,-0.747812 3.52897,-1.401781 1.94157,-0.653968 3.74194,-1.265103 4.00082,-1.358077 0.25887,-0.09297 -0.14816,0.466096 -0.9045,1.242377 -0.75634,0.776282 -1.79355,2.164601 -2.30492,3.085156 -0.95055,1.71116 -1.56392,2.022989 -2.50841,1.275226 z"
       id="path861"
       sodipodi:nodetypes="ssssscssssccssssssscsscsssssssscssscsssscssssssscsscsssssssssssscsssscssscccsssssssscssscssssssssssssssssssss" />
    <path
       style="fill:#3a5038;fill-opacity:1;stroke-width:0.316288"
       d="m 33.844978,120.34857 c -0.664257,-0.96353 -0.677837,-4.07354 -0.0178,-4.07354 0.353617,0 0.470677,0.38415 0.470677,1.54462 0,1.09152 0.168337,1.69938 0.573847,2.07224 0.708074,0.65105 0.826614,0.65324 1.443351,0.0266 0.314877,-0.31991 0.493107,-1.0689 0.493107,-2.07225 0,-1.18413 0.11599,-1.57126 0.470677,-1.57126 0.358927,0 0.470677,0.39948 0.470677,1.6825 0,2.25711 -0.597027,3.0996 -2.196508,3.0996 -0.904544,0 -1.345741,-0.18303 -1.708038,-0.70855 z m 5.1597,-1.81206 c 0,-2.26246 0.0574,-2.50536 0.560117,-2.37178 0.308067,0.0818 0.978794,0.78258 1.490491,1.55717 0.511707,0.7746 1.036274,1.41152 1.165714,1.41537 0.129437,0.004 0.235347,-0.7058 0.235347,-1.57702 0,-1.27704 0.0912,-1.54846 0.470667,-1.40053 0.35966,0.14024 0.470687,0.7395 0.470687,2.54046 0,2.07164 -0.0695,2.35695 -0.574384,2.35695 -0.32544,0 -1.039424,-0.65633 -1.647381,-1.51434 l -1.073004,-1.51434 -0.0956,1.51434 c -0.0671,1.06319 -0.23074,1.51434 -0.549127,1.51434 -0.357227,0 -0.453487,-0.53509 -0.453487,-2.52062 z m 5.39963,0.0499 c 0.0721,-1.94231 0.192317,-2.47076 0.562324,-2.47076 0.37002,0 0.4903,0.52845 0.562327,2.47076 0.0861,2.32124 0.0521,2.47075 -0.562327,2.47075 -0.614394,0 -0.648424,-0.14951 -0.562324,-2.47075 z m 2.827982,0.10194 c -0.778354,-1.94162 -0.867824,-2.4007 -0.496167,-2.54561 0.31291,-0.12198 0.643827,0.27453 1.067804,1.27943 0.337897,0.80091 0.614377,1.58776 0.614377,1.74857 0,0.77157 0.535987,0.12869 1.130634,-1.35609 0.376377,-0.93983 0.881974,-1.68098 1.176694,-1.72492 0.667534,-0.0995 0.679324,-0.1671 -0.45389,2.59854 -1.289511,3.1471 -1.777888,3.14711 -3.039452,8e-5 z m 4.951463,0.13715 c 0,-1.22739 -0.0353,-2.31966 -0.0784,-2.42725 -0.0432,-0.1076 0.733577,-0.21518 1.726041,-0.23909 1.257331,-0.0304 1.804428,0.0773 1.804278,0.355 -1.3e-4,0.25235 -0.460547,0.3985 -1.255351,0.3985 -1.045974,0 -1.255164,0.10628 -1.255164,0.63762 0,0.53351 0.20919,0.63762 1.281294,0.63762 0.879854,0 1.240681,0.12382 1.151651,0.39518 -0.0804,0.24508 -0.567114,0.35689 -1.281301,0.29438 -0.988464,-0.0865 -1.151644,-0.007 -1.151644,0.56124 0,0.55984 0.19377,0.66204 1.255164,0.66204 0.906494,0 1.255141,0.13283 1.255141,0.4782 0,0.36711 -0.400957,0.47822 -1.725828,0.47822 h -1.725841 z m 4.458273,-0.22932 0.0917,-2.46098 1.568941,0.0982 c 0.862907,0.054 1.745441,0.24651 1.961171,0.42777 0.541477,0.45495 0.491167,1.52485 -0.10307,2.19196 -0.451767,0.5072 -0.448597,0.62846 0.036,1.38003 0.508697,0.78878 0.505307,0.82399 -0.0792,0.82399 -0.335837,0 -0.799557,-0.35866 -1.030464,-0.79702 -0.23092,-0.43836 -0.678387,-0.79702 -0.994384,-0.79702 -0.40367,0 -0.574557,0.23706 -0.574557,0.79702 0,0.50558 -0.17693,0.79702 -0.483877,0.79702 -0.40211,0 -0.468397,-0.4159 -0.39223,-2.46098 z m 2.924235,-0.42225 c 0.312257,-0.51334 -0.503587,-1.30329 -1.236184,-1.19695 -0.403127,0.0586 -0.693604,0.37096 -0.755314,0.81241 -0.0849,0.60759 0.0442,0.71731 0.844404,0.71731 0.519567,0 1.035754,-0.14975 1.147094,-0.33277 z m 2.200458,2.45368 c -0.762437,-0.56643 -0.10971,-1.00633 0.777394,-0.52395 0.735057,0.39969 1.970091,0.12037 1.797241,-0.40653 -0.0631,-0.19221 -0.558837,-0.50283 -1.101704,-0.69026 -1.377431,-0.47555 -1.756481,-0.95088 -1.520371,-1.9066 0.240637,-0.97417 1.456571,-1.38722 2.568435,-0.8725 1.123184,0.51994 0.925294,0.99471 -0.381187,0.91447 -1.604461,-0.0986 -1.708301,0.60911 -0.15186,1.03492 1.386081,0.37921 1.853568,1.18081 1.300734,2.23034 -0.40685,0.77233 -2.368628,0.90364 -3.288682,0.22011 z m 4.537473,-1.96151 c 0,-1.91284 0.0942,-2.39104 0.470677,-2.39104 0.37655,0 0.470687,0.4782 0.470687,2.39104 0,1.91284 -0.0942,2.39106 -0.470687,2.39106 -0.376547,0 -0.470677,-0.47822 -0.470677,-2.39106 z m 2.196518,-0.0819 v -2.47305 l 1.490481,0.11374 c 2.688485,0.20523 3.813449,2.3418 2.132338,4.0498 -0.591817,0.6013 -1.100554,0.78254 -2.196518,0.78254 H 68.50071 Z m 2.958562,1.01564 c 0.696117,-0.70725 0.611937,-1.60993 -0.204297,-2.1908 -1.341984,-0.95499 -1.812911,-0.66983 -1.812911,1.09775 0,1.47527 0.0568,1.59404 0.762057,1.59404 0.419137,0 0.983954,-0.22544 1.255151,-0.50099 z m 1.748251,1.36851 c 0,-0.0489 0.415287,-1.089 0.922864,-2.31135 0.739447,-1.78069 1.058344,-2.22245 1.604361,-2.22245 0.551297,0 0.848477,0.42632 1.555641,2.23164 0.760617,1.94174 0.808517,2.24673 0.36876,2.34774 -0.27797,0.0639 -0.557847,-0.0437 -0.621947,-0.23911 -0.14468,-0.44098 -2.574535,-0.47532 -2.574535,-0.0364 0,0.17535 -0.2824,0.31882 -0.627567,0.31882 -0.345167,0 -0.627577,-0.04 -0.627577,-0.0889 z m 2.963145,-2.22245 c -0.30004,-0.99175 -0.4412,-1.09118 -0.778887,-0.54868 -0.478957,0.76946 -0.342797,1.26599 0.347187,1.26599 0.527847,0 0.608287,-0.13364 0.4317,-0.71731 z m 2.998622,-0.1594 -1.9e-4,-2.47076 1.570231,0.11049 c 1.231914,0.0868 1.705231,0.28488 2.196718,0.9197 1.413521,1.82576 0.165687,3.91126 -2.340248,3.91126 H 79.16948 Z m 2.958762,1.01334 c 0.2712,-0.27553 0.493097,-0.70593 0.493097,-0.95642 0,-0.66729 -1.156791,-1.73067 -1.882728,-1.73067 -0.543897,0 -0.627577,0.21254 -0.627577,1.59404 0,1.47527 0.0568,1.59404 0.762057,1.59404 0.419127,0 0.983954,-0.22544 1.255151,-0.50099 z m 4.258546,1.18706 c 0,-0.14869 0.399417,-1.26054 0.887617,-2.47075 1.203651,-2.98391 1.748688,-2.96151 2.976552,0.12232 0.959544,2.40993 0.931194,3.02743 -0.10875,2.3676 -0.736564,-0.46735 -2.388445,-0.5094 -2.657175,-0.0676 -0.235807,0.38764 -1.098264,0.42569 -1.098264,0.0484 z m 3.137872,-1.50406 c 0,-0.0992 -0.159777,-0.48371 -0.355087,-0.85447 -0.343867,-0.65279 -0.368657,-0.65524 -0.784477,-0.0775 -0.616484,0.8566 -0.534847,1.11235 0.35511,1.11235 0.431447,0 0.784454,-0.0812 0.784454,-0.18037 z m 2.998785,1.06586 c -0.664257,-0.96353 -0.677847,-4.07355 -0.0178,-4.07355 0.354707,0 0.470667,0.38712 0.470667,1.57125 0,1.45836 0.532457,2.57323 1.228941,2.57323 0.699047,0 1.281364,-1.27457 1.281364,-2.80466 0,-1.32557 0.0899,-1.60356 0.470677,-1.45512 0.756197,0.29482 0.639987,3.45017 -0.15689,4.25978 -0.879354,0.89342 -2.638405,0.85534 -3.276969,-0.071 z m 6.138034,-1.284 c 0.075,-1.83635 0.0275,-2.00052 -0.605377,-2.09441 -0.377707,-0.056 -0.686827,-0.27123 -0.686937,-0.47822 -2.6e-4,-0.49362 3.853015,-0.42882 4.015865,0.0676 0.0649,0.19758 -0.24125,0.35315 -0.69476,0.35315 -0.788487,0 -0.810617,0.0566 -0.810617,2.07224 0,1.8833 -0.0592,2.07225 -0.649777,2.07225 -0.596537,0 -0.643097,-0.16325 -0.568397,-1.99255 z m 3.783181,1.25468 c -1.17346,-1.26906 -0.86795,-3.12783 0.64471,-3.92257 2.4665,-1.29587 4.76778,1.59305 3.0433,3.82043 -0.86869,1.12201 -2.69811,1.17268 -3.68801,0.10218 z m 2.69959,-0.39604 c 0.82582,-0.58767 0.90124,-1.61571 0.17808,-2.42756 -0.64439,-0.72344 -1.2989,-0.74117 -2.04473,-0.0554 -0.7802,0.71735 -0.72229,1.88103 0.12355,2.48296 0.38357,0.27295 0.77577,0.49629 0.87155,0.49629 0.0958,0 0.48798,-0.22334 0.87155,-0.49629 z m 2.58014,-1.22303 c 0,-3.08123 0.49159,-3.34114 2.11907,-1.1204 l 1.17571,1.60431 0.0945,-1.42669 c 0.0584,-0.88109 0.26837,-1.49448 0.54913,-1.60393 0.37352,-0.14563 0.45462,0.27593 0.45462,2.36319 0,3.05664 -0.42783,3.29931 -1.94962,1.10582 -0.54742,-0.78904 -1.10932,-1.43462 -1.24869,-1.43462 -0.13936,0 -0.25338,0.64558 -0.25338,1.43462 0,1.06269 -0.12203,1.43464 -0.47069,1.43464 -0.37593,0 -0.47068,-0.47442 -0.47068,-2.35694 z m 6.50678,1.95843 c -0.7621,-0.58797 -1.20337,-2.02757 -0.8835,-2.88237 0.36412,-0.973 0.97944,-1.45607 2.16034,-1.69603 0.81687,-0.16599 1.13998,-0.0334 1.96798,0.80789 0.83453,0.84787 0.95999,1.16777 0.79611,2.02984 -0.10697,0.56284 -0.49218,1.27441 -0.85595,1.58127 -0.77008,0.64958 -2.44121,0.73323 -3.18498,0.1594 z m 2.88018,-1.32223 c 0.92324,-1.13021 -0.66322,-2.78774 -2.0526,-2.14458 -0.98809,0.4574 -1.02795,2.03362 -0.0687,2.71625 0.7146,0.50852 1.38693,0.32735 2.1213,-0.57167 z m 2.22324,-0.6362 c 0,-1.81733 0.10947,-2.39963 0.47816,-2.54336 0.33858,-0.13201 0.67742,0.23028 1.16079,1.24111 0.37544,0.78515 0.77425,1.42753 0.88624,1.42753 0.11196,0 0.4583,-0.57385 0.76961,-1.27522 0.36408,-0.82032 0.77286,-1.27522 1.14591,-1.27522 0.51249,0 0.57992,0.27803 0.57992,2.39104 0,1.87256 -0.0983,2.39106 -0.45348,2.39106 -0.31818,0 -0.48251,-0.45188 -0.55072,-1.51433 l -0.0973,-1.51434 -0.60567,1.19552 c -0.33312,0.65755 -0.69458,1.19553 -0.80323,1.19553 -0.10863,0 -0.4701,-0.53798 -0.80322,-1.19553 l -0.60568,-1.19552 -0.0973,1.51434 c -0.0682,1.06245 -0.23253,1.51433 -0.55071,1.51433 -0.35457,0 -0.45349,-0.51414 -0.45349,-2.35694 z m 5.96199,2.20089 c 0,-0.70243 1.76576,-4.39182 2.2202,-4.63892 0.66479,-0.36147 0.74317,-0.24947 1.96122,2.80242 0.75906,1.90188 0.7677,1.99255 0.18965,1.99255 -0.33307,0 -0.60559,-0.14347 -0.60559,-0.31882 0,-0.17534 -0.55649,-0.3188 -1.23663,-0.3188 -0.68016,0 -1.32392,0.14346 -1.43057,0.3188 -0.19494,0.32046 -1.09828,0.45433 -1.09828,0.16277 z m 3.01458,-1.94228 c -0.10472,-0.27735 -0.19047,-0.636 -0.19047,-0.79701 0,-0.58053 -0.53445,-0.27576 -0.88426,0.50428 -0.33109,0.73828 -0.29765,0.79702 0.45388,0.79702 0.6109,0 0.76427,-0.12458 0.62085,-0.50429 z m 4.83017,-0.29273 v -2.39104 h 1.56894 c 1.92908,0 2.8241,0.75044 2.8241,2.36791 0,1.48381 -1.16513,2.41419 -3.02331,2.41419 h -1.36973 z m 3.07513,1.05207 c 0.94181,-0.95688 -0.0967,-2.80551 -1.57601,-2.80551 -0.46011,0 -0.55775,0.27906 -0.55775,1.59404 0,1.53331 0.0334,1.59404 0.8786,1.59404 0.48324,0 1.04806,-0.17216 1.25516,-0.38257 z m 2.32453,-1.08915 0.0917,-2.42815 1.80449,-0.0427 c 2.15783,-0.051 2.56873,0.66153 0.47047,0.81578 -1.75998,0.12937 -1.87956,1.00853 -0.15689,1.15339 1.54555,0.12996 1.5519,0.85747 0.007,0.85747 -0.86332,0 -1.19811,0.14612 -1.27837,0.55792 -0.0908,0.46612 0.12735,0.55791 1.32631,0.55791 1.06642,0 1.43507,0.12284 1.43507,0.47821 0,0.37231 -0.41986,0.47821 -1.89594,0.47821 h -1.89594 l 0.0917,-2.42814 z m 4.64159,0.0712 c 0,-1.80096 0.11101,-2.40023 0.47069,-2.54046 0.38849,-0.15146 0.47068,0.17662 0.47068,1.87874 v 2.06224 h 1.25517 c 0.90651,0 1.25516,0.13283 1.25516,0.47821 0,0.3671 -0.40096,0.47821 -1.72585,0.47821 h -1.72585 z m 6.2758,-0.0341 v -2.39105 h 1.88274 c 2.14218,0 2.57435,0.55011 0.54913,0.69899 -1.75998,0.12937 -1.87957,1.00853 -0.15689,1.15339 1.54554,0.12996 1.5519,0.85747 0.007,0.85747 -0.8633,0 -1.19811,0.14612 -1.27836,0.55792 -0.0908,0.46612 0.12735,0.55791 1.32631,0.55791 1.06642,0 1.43506,0.12285 1.43506,0.47821 0,0.37194 -0.41838,0.47821 -1.88274,0.47821 h -1.88274 v -2.39105 z m 4.87618,1.96151 c -0.76244,-0.56643 -0.10971,-1.00633 0.7774,-0.52396 0.73506,0.39969 1.9701,0.12037 1.79725,-0.40652 -0.0631,-0.19221 -0.55884,-0.50284 -1.10171,-0.69026 -1.37744,-0.47556 -1.75649,-0.95088 -1.52038,-1.9066 0.24064,-0.97417 1.45658,-1.38722 2.56845,-0.87251 1.12319,0.51994 0.9253,0.99471 -0.38118,0.91448 -1.44476,-0.0887 -1.81998,0.6509 -0.46943,0.92533 1.42512,0.28958 2.11541,1.19724 1.66846,2.19385 -0.29008,0.64684 -0.58175,0.79573 -1.55876,0.79573 -0.66105,0 -1.4621,-0.19329 -1.7801,-0.42954 z m 5.72918,-1.563 c -0.084,-1.78963 -0.16531,-2.00291 -0.79944,-2.09442 -1.51402,-0.21846 -0.59953,-0.69514 1.33361,-0.69514 1.15056,0 2.03963,0.13897 2.03963,0.31881 0,0.17534 -0.35302,0.3188 -0.78448,0.3188 -0.75631,0 -0.78447,0.0743 -0.78447,2.07224 0,1.59919 -0.10401,2.07225 -0.45572,2.07225 -0.33984,0 -0.47945,-0.5066 -0.54913,-1.99254 z m 2.5738,1.90364 c 0,-0.0489 0.41529,-1.089 0.92287,-2.31135 0.72918,-1.75598 1.06237,-2.22245 1.58745,-2.22245 0.52506,0 0.85825,0.46647 1.58742,2.22245 0.50759,1.22235 0.92288,2.26246 0.92288,2.31135 0,0.0489 -0.2824,0.0889 -0.62757,0.0889 -0.34518,0 -0.62758,-0.14347 -0.62758,-0.31882 0,-0.17534 -0.56482,-0.3188 -1.25515,-0.3188 -0.69035,0 -1.25517,0.14346 -1.25517,0.3188 0,0.17535 -0.2824,0.31882 -0.62757,0.31882 -0.34518,0 -0.62758,-0.04 -0.62758,-0.0889 z m 2.96316,-2.22245 c -0.30004,-0.99174 -0.4412,-1.09118 -0.77889,-0.54868 -0.47897,0.76947 -0.3428,1.266 0.34719,1.266 0.52785,0 0.60829,-0.13364 0.4317,-0.71732 z m 2.99883,0.0797 c 0,-1.2274 0.002,-2.33213 0.004,-2.45495 0.002,-0.12281 0.67285,-0.18799 1.4905,-0.14481 3.87483,0.20457 3.80966,4.83142 -0.0681,4.83142 h -1.42598 z m 2.95859,0.77425 c 0.2712,-0.27554 0.4931,-0.70593 0.4931,-0.95642 0,-0.6673 -1.1568,-1.73067 -1.88274,-1.73067 -0.5439,0 -0.62758,0.21254 -0.62758,1.59404 0,1.47526 0.0568,1.59404 0.76206,1.59404 0.41913,0 0.98396,-0.22545 1.25516,-0.50099 z m 3.23441,1.0589 c -0.76211,-0.58798 -1.20338,-2.02758 -0.88349,-2.88237 0.3641,-0.973 0.97943,-1.45608 2.16032,-1.69604 0.81159,-0.16491 1.13913,-0.0342 1.93128,0.77061 1.16919,1.18789 1.23203,2.35872 0.18373,3.42377 -0.85457,0.86824 -2.51984,1.05678 -3.39184,0.38403 z m 3.07514,-1.55068 c 0.41521,-1.3291 -1.11678,-2.55508 -2.35292,-1.88294 -0.87174,0.474 -0.85726,2.04692 0.0247,2.67449 0.79094,0.56285 2.03758,0.13903 2.32828,-0.79155 z m 4.22481,-0.28247 c 0,-1.2274 0.002,-2.33213 0.004,-2.45495 0.002,-0.12281 0.67285,-0.18799 1.4905,-0.14481 3.87484,0.20457 3.80966,4.83142 -0.0681,4.83142 h -1.42631 z m 2.87784,0.7476 c 0.31561,-0.29018 0.57384,-0.72057 0.57384,-0.95642 0,-0.64499 -1.17009,-1.70402 -1.88274,-1.70402 -0.5439,0 -0.62757,0.21254 -0.62757,1.59404 0,1.4234 0.0729,1.59404 0.68132,1.59404 0.37472,0 0.93954,-0.23744 1.25515,-0.52764 z m 2.45657,-0.907 v -2.39104 h 1.88274 c 1.04597,0 1.88274,0.14168 1.88274,0.3188 0,0.17534 -0.63543,0.3188 -1.41205,0.3188 -1.20287,0 -1.41206,0.0945 -1.41206,0.63762 0,0.53134 0.20919,0.63762 1.25517,0.63762 1.58674,0 1.65242,0.56563 0.081,0.69806 -0.82054,0.0692 -1.20544,0.26695 -1.27816,0.65686 -0.0868,0.46542 0.13381,0.55792 1.33099,0.55792 1.06642,0 1.43506,0.12284 1.43506,0.4782 0,0.37194 -0.41838,0.47822 -1.88274,0.47822 h -1.88273 z m 6.84971,-0.0315 c -0.0568,-1.33236 -0.0258,-2.47059 0.0687,-2.52942 0.33141,-0.20622 0.9806,0.40767 1.68488,1.59328 l 0.71073,1.19646 0.84042,-1.457 c 1.22746,-2.12801 1.76962,-1.74131 1.76962,1.26219 0,1.84281 -0.0989,2.35695 -0.4535,2.35695 -0.31838,0 -0.48198,-0.45114 -0.54913,-1.51433 l -0.0956,-1.51435 -0.80339,1.38169 -0.80338,1.3817 -0.57788,-1.30199 c -0.75412,-1.69908 -1.07175,-1.65087 -0.87389,0.13264 0.12794,1.15318 0.0637,1.43464 -0.32755,1.43464 -0.38798,0 -0.50763,-0.49135 -0.58994,-2.42247 z m 6.08091,-0.006 0.0917,-2.42815 1.8045,-0.0426 c 1.25688,-0.0296 1.80443,0.0783 1.80429,0.35589 -1.4e-4,0.25236 -0.46055,0.39851 -1.25536,0.39851 -1.04598,0 -1.25517,0.10627 -1.25517,0.63761 0,0.53351 0.20919,0.63762 1.2813,0.63762 0.87984,0 1.24069,0.12382 1.15166,0.39519 -0.0804,0.24507 -0.56712,0.35689 -1.28131,0.29437 -0.98847,-0.0865 -1.15165,-0.007 -1.15165,0.56124 0,0.55984 0.19375,0.66204 1.25517,0.66204 0.9065,0 1.25515,0.13283 1.25515,0.47821 0,0.37231 -0.41986,0.47821 -1.89594,0.47821 h -1.89593 z m 4.64159,2.24745 c 0,-0.0994 0.35097,-0.64818 0.77992,-1.21956 l 0.77992,-1.03887 -0.77992,-1.07404 c -0.42895,-0.59072 -0.77992,-1.18511 -0.77992,-1.32089 0,-0.40929 1.06258,0.13562 1.61585,0.82865 0.51738,0.64807 0.5178,0.64803 1.12833,-0.11796 0.53523,-0.67155 1.64888,-1.19068 1.64888,-0.76864 0,0.0839 -0.35302,0.62269 -0.78448,1.19741 -0.43147,0.57471 -0.78447,1.14857 -0.78447,1.27522 0,0.12666 0.36977,0.72283 0.82171,1.32484 0.77324,1.02998 0.78463,1.09455 0.19298,1.09455 -0.34579,0 -0.86536,-0.36692 -1.15457,-0.81538 l -0.52585,-0.81537 -0.63128,0.81537 c -0.55818,0.72096 -1.5271,1.12367 -1.5271,0.6347 z m 5.33442,-2.35978 c 0,-2.1272 0.0765,-2.5106 0.47068,-2.35694 0.35966,0.14023 0.47069,0.73949 0.47069,2.54045 0,1.88253 -0.0948,2.35695 -0.47069,2.35695 -0.379,0 -0.47068,-0.49482 -0.47068,-2.54046 z m 2.53309,1.70045 c -0.95172,-1.22927 -0.83994,-2.44811 0.31509,-3.43555 1.07157,-0.91608 1.66402,-1.00093 2.74281,-0.39278 0.6272,0.35356 0.66342,0.46379 0.26327,0.8012 -0.31463,0.26531 -0.52941,0.28363 -0.66732,0.057 -0.3251,-0.53443 -1.27687,-0.38742 -1.88071,0.29049 -1.11663,1.25358 0.28601,3.33997 1.72089,2.55977 0.81579,-0.44359 1.41629,-0.1076 0.91169,0.51012 -0.2021,0.2474 -0.90473,0.44983 -1.56141,0.44983 -0.9161,0 -1.34531,-0.19549 -1.84431,-0.84001 z m 5.05254,0.10218 c -1.17345,-1.26907 -0.86795,-3.12783 0.64471,-3.92257 2.46651,-1.29588 4.76778,1.59305 3.0433,3.82042 -0.86869,1.12202 -2.69811,1.17269 -3.68801,0.10218 z m 2.76941,-0.53737 c 0.76357,-0.77576 0.7984,-1.51146 0.10828,-2.28624 -0.64439,-0.72343 -1.29889,-0.74117 -2.04474,-0.0554 -0.78019,0.71735 -0.72228,1.88103 0.12357,2.48296 0.89748,0.63868 1.05746,0.62621 1.8129,-0.14133 z m -116.41586,-4.6227 c 0.21485,-0.26301 0.60244,-0.4782 0.86132,-0.4782 0.38281,0 0.39775,0.0893 0.08,0.4782 -0.21484,0.26303 -0.60244,0.47822 -0.86132,0.47822 -0.3828,0 -0.39775,-0.0893 -0.08,-0.47822 z m 97.66681,0.0797 c 0.0719,-0.21918 0.39682,-0.45092 0.72219,-0.51498 0.51182,-0.10073 0.53486,-0.047 0.17091,0.39851 -0.49773,0.60932 -1.07949,0.68519 -0.8931,0.11652 z M 6.9983392,111.68224 c 0,-0.0712 2.801514,-4.48271 6.2255828,-9.80331 l 6.225587,-9.673832 107.928851,-0.08015 107.92934,-0.08016 5.79105,8.988302 c 3.18507,4.94357 6.03607,9.39113 6.33555,9.88348 l 0.54453,0.89517 H 127.48832 c -66.269558,0 -120.4899808,-0.0583 -120.4899808,-0.12949 z M 64.970601,106.4006 c 1.496451,-0.69013 1.615581,-0.95151 0.698794,-1.53322 -0.452377,-0.28703 -0.807144,-0.30907 -1.234521,-0.0767 -1.108364,0.60267 -2.432428,0.38517 -3.128502,-0.51391 -1.293974,-1.67134 -0.32792,-4.26092 1.589561,-4.26092 0.516577,0 1.229541,0.15788 1.584401,0.35082 0.524827,0.28538 0.766404,0.22764 1.295101,-0.30952 l 0.649917,-0.660322 -1.504751,-0.676267 c -1.903321,-0.855394 -3.286332,-0.633837 -4.791483,0.767597 -2.797955,2.605152 -0.918144,7.245542 3.037202,7.497482 0.25888,0.0165 1.070804,-0.24679 1.804281,-0.58505 z m 9.178276,-0.28123 c 1.080824,-0.80474 1.530391,-2.31955 1.551241,-5.22678 l 0.0177,-2.470766 H 74.776454 73.83509 l -0.005,2.470766 c -0.007,3.52881 -0.691867,4.59581 -2.633595,4.10067 -1.018514,-0.25971 -1.441031,-1.48982 -1.441031,-4.19537 0,-2.321926 -0.0179,-2.376066 -0.784477,-2.376066 -0.784054,0 -0.784454,0.002 -0.784454,3.163556 0,3.09197 0.0214,3.18526 0.944014,4.12268 1.419081,1.44178 3.414309,1.60532 5.01794,0.41131 z m 85.418183,0.0777 c 0.8079,-0.42446 0.87376,-0.60263 0.87376,-2.36372 v -1.90466 h -1.88273 c -1.79907,0 -1.88274,0.0354 -1.88274,0.79702 0,0.67706 0.14498,0.79702 0.96319,0.79702 0.81938,0 0.94823,0.1071 0.86292,0.71732 -0.1199,0.85776 -1.52811,1.14649 -2.64084,0.54146 -2.52998,-1.37565 -0.98531,-5.306542 1.84034,-4.68329 0.38512,0.085 0.91204,0.24058 1.17091,0.34587 0.25888,0.10528 0.7531,-0.0286 1.09826,-0.29753 0.62522,-0.487102 0.62523,-0.490722 0.006,-0.956699 -1.33164,-1.002127 -2.86123,-1.222294 -4.38477,-0.63115 -2.60375,1.010287 -3.62759,3.574779 -2.34956,5.885099 1.31009,2.36827 3.82684,3.06588 6.32523,1.75326 z M 42.770127,105.11679 v -1.59403 h 2.039618 2.039618 v -0.97897 -0.97898 l -1.961168,0.0831 c -1.918691,0.0813 -1.963321,0.0645 -2.060468,-0.77446 l -0.0993,-0.85754 h 2.374255 c 2.323338,0 2.374248,-0.0171 2.374248,-0.797009 v -0.797077 h -3.294772 -3.294762 v 4.144516 4.14448 h 0.941364 c 0.920437,0 0.941357,-0.0354 0.941357,-1.59403 z m 8.249402,0.95642 c 0.14102,-0.54789 0.427997,-0.63761 2.039608,-0.63761 1.611601,0 1.898601,0.0897 2.039618,0.63761 0.1195,0.46428 0.42802,0.63762 1.134854,0.63762 0.533917,0 0.970744,-0.1244 0.970744,-0.27644 0,-0.15204 -0.688454,-1.9812 -1.529901,-4.06479 -1.505421,-3.727769 -1.547001,-3.789879 -2.599525,-3.883216 l -1.069614,-0.0949 -1.516401,3.761146 c -0.834024,2.06862 -1.585611,3.94046 -1.670191,4.15964 -0.1052,0.27253 0.19245,0.39851 0.941454,0.39851 0.831337,0 1.134774,-0.15364 1.259354,-0.63762 z m 1.326944,-3.41079 c 0.266697,-0.64854 0.542737,-1.2379 0.613404,-1.3097 0.10958,-0.11132 1.106604,2.02254 1.106604,2.36838 0,0.0663 -0.496117,0.12047 -1.102464,0.12047 h -1.102484 z m 31.28651,3.87055 c 0.0963,-0.0978 0.10329,-0.45649 0.0157,-0.79702 -0.136777,-0.53143 -0.443167,-0.61916 -2.162378,-0.61916 h -2.003018 v -3.34748 c 0,-3.337216 -0.002,-3.347476 -0.766544,-3.347476 h -0.766527 l -0.0964,4.012826 c -0.053,2.20703 -0.0376,4.07205 0.0344,4.14448 0.19882,0.20025 5.54454,0.15729 5.744787,-0.0462 z m 5.57771,-3.16961 v -3.34749 h 1.255144 c 1.129631,0 1.255151,-0.0797 1.255151,-0.797019 v -0.797017 h -3.451659 -3.451672 v 0.797017 c 0,0.717317 0.12552,0.797019 1.255154,0.797019 h 1.255151 v 3.34749 3.34747 h 0.941367 0.941364 z m 5.33438,2.70985 c 0.277097,-0.52602 0.657017,-0.63761 2.170958,-0.63761 1.571191,0 1.858678,0.0917 1.999198,0.63761 0.11951,0.46428 0.428017,0.63762 1.134854,0.63762 0.533907,0 0.970737,-0.11499 0.970737,-0.25554 0,-0.14055 -0.69633,-1.96971 -1.547404,-4.06479 -1.526551,-3.757939 -1.561961,-3.810569 -2.627905,-3.905836 l -1.080484,-0.0966 -1.486721,3.762866 c -0.817697,2.06957 -1.556501,3.94218 -1.641791,4.16136 -0.277,0.71175 1.727421,0.48446 2.108558,-0.23911 z m 1.502191,-3.68665 0.530767,-1.45502 0.529187,1.21591 c 0.725607,1.6672 0.717537,1.69412 -0.507497,1.69412 h -1.083244 z m 11.791216,3.88469 c 2.1747,-0.92317 3.14288,-3.23361 2.18591,-5.21637 -0.92526,-1.917059 -2.28864,-2.633046 -5.01381,-2.633046 h -2.30702 v 4.144506 4.14449 h 2.04971 c 1.12734,0 2.51569,-0.19781 3.08521,-0.43958 z m -3.25218,-3.66294 v -2.59245 h 1.08077 c 1.49508,0 2.7893,1.16821 2.7893,2.51773 0,1.35337 -0.9441,2.26843 -2.56885,2.48983 l -1.30122,0.17733 z m 17.50627,3.49524 c 2.13096,-1.11155 2.87651,-3.62606 1.67075,-5.63498 -0.85265,-1.420639 -2.38998,-2.046746 -5.02547,-2.046746 h -2.22755 v 4.144516 4.14448 h 2.20903 c 1.55558,0 2.5534,-0.17963 3.37324,-0.60727 z m -3.69953,-3.53721 v -2.55048 h 0.95695 c 1.35647,0 2.76535,0.8301 2.99641,1.76544 0.43929,1.77824 -0.97383,3.33549 -3.02676,3.33549 h -0.9266 z m 14.4343,3.34747 c 0,-0.77993 -0.0509,-0.79702 -2.37425,-0.79702 h -2.37427 l 0.0993,-0.87672 c 0.0961,-0.84874 0.16674,-0.87972 2.21322,-0.97089 1.97928,-0.0882 2.10728,-0.13894 2.00942,-0.79702 -0.0941,-0.63204 -0.31487,-0.71235 -2.19239,-0.79712 -1.98229,-0.0895 -2.08786,-0.13383 -2.08786,-0.87672 0,-0.76119 0.064,-0.78246 2.35342,-0.78246 2.30113,0 2.35342,-0.0177 2.35342,-0.797009 v -0.797027 h -3.29479 -3.29479 v 4.144516 4.14448 h 3.29479 3.29479 z m 7.84474,-3.34747 v -4.144516 h -0.94137 -0.94136 v 4.144516 4.14448 h 0.94136 0.94137 z m 4.33851,1.56618 -0.10235,-2.57831 0.87561,1.06398 c 0.48159,0.58518 1.32881,1.74172 1.88274,2.57008 0.84999,1.27111 1.16625,1.50739 2.02695,1.51433 l 1.01981,0.008 v -4.14449 -4.144516 h -0.92868 -0.92868 l -0.0911,2.586236 -0.0912,2.58623 -1.82077,-2.58623 c -1.57167,-2.232389 -1.94733,-2.586236 -2.74568,-2.586236 h -0.92488 v 4.144516 4.14448 h 0.96526 0.96528 z m 23.90255,1.78129 c 0,-0.77425 -0.0627,-0.79702 -2.19654,-0.79702 h -2.19652 v -0.95642 -0.95642 h 2.03963 c 1.96642,0 2.03963,-0.0286 2.03963,-0.79702 0,-0.76841 -0.0732,-0.79702 -2.03963,-0.79702 -1.96642,0 -2.03963,-0.0286 -2.03963,-0.79702 0,-0.77425 0.0627,-0.79703 2.19652,-0.79703 2.13378,0 2.19654,-0.0228 2.19654,-0.797009 v -0.797027 h -3.1379 -3.13789 v 4.144516 4.14448 h 3.13789 3.1379 z m 4.07926,-1.8202 v -2.61722 l 1.89078,2.61722 c 1.63264,2.25988 2.01823,2.61721 2.82411,2.61721 h 0.93331 v -4.14448 -4.144516 h -0.94136 -0.94137 v 2.617226 2.61723 l -1.8908,-2.61723 c -1.63263,-2.259889 -2.01821,-2.617226 -2.8241,-2.617226 h -0.93331 v 4.144516 4.14448 h 0.94137 0.94137 z m 9.97219,-1.60697 0.0878,-4.064816 h -0.95074 -0.95073 v 4.165686 4.16566 l 0.86291,-0.10087 0.86292,-0.10088 z m 8.54138,3.42717 c 0,-0.77425 -0.0627,-0.79702 -2.19653,-0.79702 h -2.19652 v -0.95642 -0.95642 h 2.03963 c 1.96641,0 2.03963,-0.0286 2.03963,-0.79702 0,-0.76841 -0.0732,-0.79702 -2.03963,-0.79702 -1.96642,0 -2.03963,-0.0286 -2.03963,-0.79702 0,-0.77425 0.0627,-0.79703 2.19652,-0.79703 2.13377,0 2.19653,-0.0228 2.19653,-0.797009 v -0.797027 h -3.1379 -3.13789 v 4.144516 4.14448 h 3.13789 3.1379 z m 3.81988,-0.55791 c -0.0929,-1.08338 -0.0306,-1.19553 0.66335,-1.19553 0.53931,0 1.02311,0.37719 1.63566,1.27523 0.72825,1.06766 1.04481,1.27522 1.94492,1.27522 h 1.07507 l -1.01962,-1.4425 -1.01963,-1.4425 0.70616,-0.50251 c 1.07027,-0.76164 1.36957,-1.86917 0.84792,-3.13762 -0.60033,-1.459769 -1.30426,-1.763866 -4.08314,-1.763866 h -2.37405 v 4.165686 4.16566 l 0.86292,-0.10087 c 0.79212,-0.0926 0.85452,-0.19897 0.76044,-1.2964 z m 0.002,-4.12615 c 0.10792,-1.14204 0.81004,-1.461942 2.3479,-1.06978 0.61936,0.15794 0.75289,0.3684 0.67412,1.06255 -0.0899,0.79176 -0.22719,0.87396 -1.60996,0.96365 l -1.51173,0.0981 z m 9.04266,1.33659 v -4.144516 h -0.94137 -0.94137 v 4.144516 4.14448 h 0.94137 0.94137 z m 3.92236,3.50687 c 0.16936,-0.54214 0.47478,-0.63761 2.03964,-0.63761 1.56485,0 1.87028,0.0955 2.03963,0.63761 0.14729,0.47149 0.47477,0.63761 1.25692,0.63761 h 1.05774 l -1.62801,-4.06478 c -1.62411,-4.055059 -1.63066,-4.065029 -2.72628,-4.156126 l -1.09827,-0.0913 -1.09826,2.801186 c -0.60404,1.54066 -1.34301,3.4109 -1.64215,4.15611 l -0.54389,1.35493 h 1.07188 c 0.79628,0 1.12308,-0.16393 1.27105,-0.63761 z m 1.32801,-3.50687 c 0.27116,-0.70139 0.58445,-1.27524 0.69619,-1.27524 0.1915,0 0.95681,1.86686 0.95681,2.33399 0,0.11906 -0.48287,0.21647 -1.07302,0.21647 h -1.07302 z m -4.85813,-5.573926 c 1.04228,-0.932035 1.07213,-1.12104 0.17712,-1.12104 -0.67248,0 -2.1383,1.130817 -2.1383,1.649605 0,0.526145 1.11897,0.224561 1.96118,-0.528565 z"
       id="path849" />
    <text
       xml:space="preserve"
       style="font-style:normal;font-weight:normal;font-size:19.05px;line-height:1.25;font-family:sans-serif;fill:#111111;fill-opacity:1;stroke:none;stroke-width:0.264583"
       x="264.87433"
       y="60.742332"
       id="text11"><tspan
         sodipodi:role="line"
         id="tspan9"
         x="264.87433"
         y="60.742332"
         style="font-style:normal;font-variant:normal;font-weight:normal;font-stretch:normal;font-size:28.2222px;font-family:Arial;-inkscape-font-specification:Arial;fill:#000000;fill-opacity:1;stroke-width:0.264583">FACULTAD DE</tspan></text>
    <text
       xml:space="preserve"
       id="text842"
       style="font-style:normal;font-weight:normal;font-size:10.5833px;line-height:1.25;font-family:sans-serif;white-space:pre;shape-inside:url(#rect844);fill:#000000;fill-opacity:1;stroke:none;" />
    <text
       xml:space="preserve"
       id="text848"
       style="font-style:normal;font-weight:normal;font-size:10.5833px;line-height:1.25;font-family:sans-serif;white-space:pre;shape-inside:url(#rect850);fill:#000000;fill-opacity:1;stroke:none;" />
    <text
       xml:space="preserve"
       id="text854"
       style="font-style:normal;font-weight:normal;font-size:10.5833px;line-height:1.25;font-family:sans-serif;white-space:pre;shape-inside:url(#rect856);fill:#000000;fill-opacity:1;stroke:none;" />
    <text
       xml:space="preserve"
       style="font-style:normal;font-variant:normal;font-weight:bold;font-stretch:normal;font-size:10.5833px;line-height:1.25;font-family:sans-serif;-inkscape-font-specification:'sans-serif Bold';fill:#3a5038;fill-opacity:1;stroke-width:0.264583"
       x="265.56354"
       y="96.711899"
       id="text862"><tspan
         sodipodi:role="line"
         id="tspan860"
         x="265.56354"
         y="96.711899"
         style="font-style:normal;font-variant:normal;font-weight:bold;font-stretch:normal;font-size:32.8083px;font-family:sans-serif;-inkscape-font-specification:'sans-serif Bold';fill:#3a5038;fill-opacity:1;stroke-width:0.264583">INGENIERÍA</tspan></text>
  </g>
</svg>
